%YAML 1.1
%TAG !u! tag:unity3d.com,2011:
--- !u!74 &7400000
AnimationClip:
  m_ObjectHideFlags: 0
  m_PrefabParentObject: {fileID: 0}
  m_PrefabInternal: {fileID: 0}
  m_Name: FireAnimation
  serializedVersion: 6
  m_Legacy: 0
  m_Compressed: 0
  m_UseHighQualityCurve: 1
  m_RotationCurves: []
  m_CompressedRotationCurves: []
  m_EulerCurves: []
  m_PositionCurves: []
  m_ScaleCurves: []
  m_FloatCurves: []
  m_PPtrCurves:
  - curve:
    - time: 0
      value: {fileID: 21300000, guid: af0e25e67e3e62e45b1ae5a638c0e47f, type: 3}
    - time: 0.05
      value: {fileID: 21300000, guid: 4e196b89856c4414aa71a119e49be01f, type: 3}
    - time: 0.1
      value: {fileID: 21300000, guid: 24a103b732f0d4e4daa1ef2ffc74f118, type: 3}
    - time: 0.15
      value: {fileID: 21300000, guid: 8ec01611c7854064f91ae99ed718a463, type: 3}
    - time: 0.2
      value: {fileID: 21300000, guid: 09e0a3ef26c7ebd43a22884bdb602e61, type: 3}
    - time: 0.25
      value: {fileID: 21300000, guid: 5552b4c770f9682479042b2615d23213, type: 3}
    - time: 0.3
      value: {fileID: 21300000, guid: f00d2595a27ce9c47896837f0a4228f0, type: 3}
    - time: 0.35000002
      value: {fileID: 21300000, guid: e0c4e08c874d97a43ac652da9850d91e, type: 3}
    - time: 0.40000004
      value: {fileID: 21300000, guid: eeaec72b37c41fc4c952b1d0c1eb5c8f, type: 3}
    - time: 0.45000005
      value: {fileID: 21300000, guid: 35b8335f8f324ea4a9333b0643e70e0f, type: 3}
    - time: 0.50000006
      value: {fileID: 21300000, guid: 0255b594b64247e4cbbfd002061d3de4, type: 3}
    - time: 0.5500001
      value: {fileID: 21300000, guid: 8d48cb4ffd455ae438b51159f23c6d19, type: 3}
    - time: 0.6000001
      value: {fileID: 21300000, guid: dbe53c4ff1b64ec4ebb224893fffe0d4, type: 3}
    - time: 0.6500001
      value: {fileID: 21300000, guid: 3aa3b0485c2649842a7e1c0db19ff549, type: 3}
    - time: 0.7000001
      value: {fileID: 21300000, guid: 2b66fb7d32774644890520ca23c874b5, type: 3}
    - time: 0.7500001
      value: {fileID: 21300000, guid: cef7bbaba2e102848bebd0a47952f6d3, type: 3}
    attribute: m_Sprite
    path: 
    classID: 212
    script: {fileID: 0}
  m_SampleRate: 20
  m_WrapMode: 0
  m_Bounds:
    m_Center: {x: 0, y: 0, z: 0}
    m_Extent: {x: 0, y: 0, z: 0}
  m_ClipBindingConstant:
    genericBindings:
    - serializedVersion: 2
      path: 0
      attribute: 0
      script: {fileID: 0}
      typeID: 212
      customType: 23
      isPPtrCurve: 1
    pptrCurveMapping:
    - {fileID: 21300000, guid: af0e25e67e3e62e45b1ae5a638c0e47f, type: 3}
    - {fileID: 21300000, guid: 4e196b89856c4414aa71a119e49be01f, type: 3}
    - {fileID: 21300000, guid: 24a103b732f0d4e4daa1ef2ffc74f118, type: 3}
    - {fileID: 21300000, guid: 8ec01611c7854064f91ae99ed718a463, type: 3}
    - {fileID: 21300000, guid: 09e0a3ef26c7ebd43a22884bdb602e61, type: 3}
    - {fileID: 21300000, guid: 5552b4c770f9682479042b2615d23213, type: 3}
    - {fileID: 21300000, guid: f00d2595a27ce9c47896837f0a4228f0, type: 3}
    - {fileID: 21300000, guid: e0c4e08c874d97a43ac652da9850d91e, type: 3}
    - {fileID: 21300000, guid: eeaec72b37c41fc4c952b1d0c1eb5c8f, type: 3}
    - {fileID: 21300000, guid: 35b8335f8f324ea4a9333b0643e70e0f, type: 3}
    - {fileID: 21300000, guid: 0255b594b64247e4cbbfd002061d3de4, type: 3}
    - {fileID: 21300000, guid: 8d48cb4ffd455ae438b51159f23c6d19, type: 3}
    - {fileID: 21300000, guid: dbe53c4ff1b64ec4ebb224893fffe0d4, type: 3}
    - {fileID: 21300000, guid: 3aa3b0485c2649842a7e1c0db19ff549, type: 3}
    - {fileID: 21300000, guid: 2b66fb7d32774644890520ca23c874b5, type: 3}
    - {fileID: 21300000, guid: cef7bbaba2e102848bebd0a47952f6d3, type: 3}
  m_AnimationClipSettings:
    serializedVersion: 2
    m_AdditiveReferencePoseClip: {fileID: 0}
    m_AdditiveReferencePoseTime: 0
    m_StartTime: 0
    m_StopTime: 0.80000013
    m_OrientationOffsetY: 0
    m_Level: 0
    m_CycleOffset: 0
    m_HasAdditiveReferencePose: 0
    m_LoopTime: 1
    m_LoopBlend: 0
    m_LoopBlendOrientation: 0
    m_LoopBlendPositionY: 0
    m_LoopBlendPositionXZ: 0
    m_KeepOriginalOrientation: 0
    m_KeepOriginalPositionY: 1
    m_KeepOriginalPositionXZ: 0
    m_HeightFromFeet: 0
    m_Mirror: 0
  m_EditorCurves: []
  m_EulerEditorCurves: []
  m_HasGenericRootTransform: 0
  m_HasMotionFloatCurves: 0
  m_GenerateMotionCurves: 0
  m_Events: []
